Clustering and Prediction using Multi-Task Gaussian Processes with Common Mean • MagmaClustR
…
Here is a basic example on how to simulate a dataset with the adequate format, then train a Magma model and use it to perform predictions.

Data generation

library(MagmaClustR)
## Simulate a dataset with 11 individuals, each observed at 10 input locations
set.seed(2)
data_magma <- simu_db(M = 11, N = 10, common_input = FALSE)
## Split individuals into training and prediction sets, and define test points
magma_train <- data_magma %>% subset(ID %in% 1:10)
magma_pred <- data_magma %>% subset(ID == 11) %>% head(5)
magma_test <- data_magma %>% subset(ID == 11) %>% tail(5)

data_magma
#> # A tibble: 110 x 3
#>    ID    Output Input
#>    <chr>  <dbl> <dbl>
#>  1 1       1.52  1.9 
#>  2 1      -5.76  3.3 
#>  3 1      -3.78  3.35
#>  4 1       7.23  5.25
#>  5 1      14.9   6.2 
#>  6 1       7.48  7.4 
#>  7 1       7.21  8.15
#>  8 1      11.5   8.2 
#>  9 1      13.1   8.9 
#> 10 1       8.72  9.5 
#> # ... with 100 more rows
…
Here is a basic example on how to simulate a dataset with the adequate format, then train a MagmaClust model and use it to perform simultaneous clustering and predictions.

Data generation

## Simulate a dataset containing 3 clusters of 4 individuals, each observed at 10 input locations
set.seed(2) 
data_magmaclust <- simu_db(M = 4, N = 10, K = 3) 
## Split individuals into training and prediction sets, and define test points
list_ID = unique(data_magmaclust$ID)
magmaclust_train <- data_magmaclust %>% subset(ID %in% list_ID[1:11])
magmaclust_pred <- data_magmaclust %>% subset(ID == list_ID[12]) %>% head(5)
magmaclust_test <- data_magmaclust %>% subset(ID == list_ID[12]) %>% tail(5)

data_magmaclust
#> # A tibble: 120 x 3
#>    ID         Output Input
#>    <chr>       <dbl> <dbl>
#>  1 ID1-Clust1 -11.1   0.25
#>  2 ID1-Clust1  -7.64  0.8 
#>  3 ID1-Clust1  -4.91  2   
#>  4 ID1-Clust1 -13.2   4.2 
#>  5 ID1-Clust1 -14.3   4.6 
#>  6 ID1-Clust1 -13.0   6.2 
#>  7 ID1-Clust1 -14.1   6.75
#>  8 ID1-Clust1 -20.3   7.95
#>  9 ID1-Clust1 -14.5   8.85
#> 10 ID1-Clust1 -12.2   9.85
#> # ... with 110 more rows
…
Although unidimensional-input problems are easier to visualise, both Magma and MagmaClust can also be applied with as many covariates as desired in the model.

Data generation

library(MagmaClustR)
## Dataset with 11 individuals, 10 reference input locations and a covariate
set.seed(2) 
data_dim2 <- simu_db(M = 11, N = 10, covariate = TRUE) 
## Split individuals into training and prediction sets, and define test points
dim2_train <- data_dim2 %>% subset(ID %in% 1:10)
dim2_pred <- data_dim2 %>% subset(ID == 11) %>% head(5)
dim2_test <- data_dim2 %>% subset(ID == 11) %>% tail(5)

data_dim2
#> # A tibble: 110 x 4
#>    ID    Output Input Covariate
#>    <chr>  <dbl> <dbl>     <dbl>
#>  1 1     -11.1   0.25     -2   
#>  2 1      -7.64  0.8       1.94
#>  3 1      -4.91  2         4.64
#>  4 1     -13.2   4.2      -3.7 
#>  5 1     -14.3   4.6      -4.24
#>  6 1     -13.0   6.2       0.68
#>  7 1     -14.1   6.75      0.55
#>  8 1     -20.3   7.95     -4.38
#>  9 1     -14.5   8.85      1.74
#> 10 1     -12.2   9.85      4.14
#> # ... with 100 more rows
…
