…
### Data generation

``` r
library(MagmaClustR)
## Simulate a dataset with 11 individuals, each observed at 10 input locations
set.seed(28)
data_magma <- simu_db(M = 11, N = 10, common_input = FALSE)
## Split individuals into training and prediction sets, and define test points
magma_train <- data_magma %>% subset(ID %in% 1:10)
magma_pred <- data_magma %>% subset(ID == 11) %>% head(7)
magma_test <- data_magma %>% subset(ID == 11) %>% tail(3)

data_magma
#> # A tibble: 110 x 3
#>    ID    Output Input
#>    <chr>  <dbl> <dbl>
#>  1 1      -56.9  0   
#>  2 1      -57.4  0.7 
#>  3 1      -53.1  1   
#>  4 1      -62.8  1.5 
#>  5 1      -60.2  1.7 
#>  6 1      -81.4  5.2 
#>  7 1      -96.2  7   
#>  8 1     -102.   7.1 
#>  9 1      -96.4  8.05
#> 10 1      -86.4  9.65
#> # ... with 100 more rows
#> # i Use `print(n = ...)` to see more rows
```
…
### Data generation

``` r

## Simulate a dataset containing 3 clusters of 4 individuals, each observed at 10 input locations
set.seed(2) 
data_magmaclust <- simu_db(M = 4, N = 10, K = 3) 
## Split individuals into training and prediction sets, and define test points
list_ID = unique(data_magmaclust$ID)
magmaclust_train <- data_magmaclust %>% subset(ID %in% list_ID[1:11])
magmaclust_pred <- data_magmaclust %>% subset(ID == list_ID[12]) %>% head(5)
magmaclust_test <- data_magmaclust %>% subset(ID == list_ID[12]) %>% tail(5)

data_magmaclust
#> # A tibble: 120 x 3
#>    ID         Output Input
#>    <chr>       <dbl> <dbl>
#>  1 ID1-Clust1  -47.0  0.25
#>  2 ID1-Clust1  -39.5  0.8 
#>  3 ID1-Clust1  -29.7  2   
#>  4 ID1-Clust1  -38.7  4.2 
#>  5 ID1-Clust1  -43.4  4.6 
#>  6 ID1-Clust1  -53.6  6.2 
#>  7 ID1-Clust1  -57.5  6.75
#>  8 ID1-Clust1  -64.9  7.95
#>  9 ID1-Clust1  -53.3  8.85
#> 10 ID1-Clust1  -42.7  9.85
#> # ... with 110 more rows
#> # i Use `print(n = ...)` to see more rows
```
…
### Data generation

``` r
library(MagmaClustR)
## Dataset with 11 individuals, 10 reference input locations and a covariate
set.seed(2) 
data_dim2 <- simu_db(M = 11, N = 10, covariate = TRUE) 
## Split individuals into training and prediction sets, and define test points
dim2_train <- data_dim2 %>% subset(ID %in% 1:10)
dim2_pred <- data_dim2 %>% subset(ID == 11) %>% head(5)
dim2_test <- data_dim2 %>% subset(ID == 11) %>% tail(5)

data_dim2
#> # A tibble: 110 x 4
#>    ID    Output Input Covariate
#>    <chr>  <dbl> <dbl>     <dbl>
#>  1 1      -47.0  0.25     -2   
#>  2 1      -39.5  0.8       1.94
#>  3 1      -29.7  2         4.64
#>  4 1      -38.7  4.2      -3.7 
#>  5 1      -43.4  4.6      -4.24
#>  6 1      -53.6  6.2       0.68
#>  7 1      -57.5  6.75      0.55
#>  8 1      -64.9  7.95     -4.38
#>  9 1      -53.3  8.85      1.74
#> 10 1      -42.7  9.85      4.14
#> # ... with 100 more rows
#> # i Use `print(n = ...)` to see more rows
```
…
