E-Step of the EM algorithm — e_step • MagmaClustR
…
db_async <- simu_db(N = 10, common_input = FALSE)
m_0_async <- rep(0, db_async$Input %>% unique() %>% length())
MagmaClustR:::e_step(db_async, m_0_async, "SE", "SE", hp_0, hp_i, 0.001)
#> $mean
#> # A tibble: 79 × 2
#>    Input  Output
#>    <dbl>   <dbl>
#>  1  0.1  -3.45  
#>  2  0.15 -3.16  
#>  3  0.4  -0.0213
#>  4  0.5  -0.569 
#>  5  0.55  1.22  
#>  6  0.6   3.12  
#>  7  0.65  0.669 
#>  8  0.8   2.74  
#>  9  0.85  1.14  
#> 10  0.9   1.66  
#> # … with 69 more rows
…
