Regularise a grid of inputs in a dataset — regularize_data • MagmaClustR
…
## Define a 2D input grid of 5x5 points
data_2D = cbind(ID = 1, expand.grid(Input=1:10, Input2=1:10), Output = 1:100)
regularize_data(data_2D, size_grid = 5)
#> # A tibble: 25 × 4
#>       ID Input Input2 Output
#>    <dbl> <dbl>  <dbl>  <dbl>
#>  1     1  0      0       1  
#>  2     1  0      2.25   16  
#>  3     1  0      4.5    36  
#>  4     1  0      6.75   56  
#>  5     1  0      9      81  
#>  6     1  2.25   0       2.5
#>  7     1  2.25   2.25   17.5
#>  8     1  2.25   4.5    37.5
#>  9     1  2.25   6.75   57.5
#> 10     1  2.25   9      82.5
#> # ℹ 15 more rows
…
